451|903|1349|firefox|1
377|904|1349|firefox|1
303|902|1349|firefox|1
694|1141|1349|firefox|1
1348|1013|1349|firefox|1
1324|1398|1349|firefox|1
553|1286|1349|firefox|1
679|1312|1349|firefox|1
381|1456|1349|firefox|1
384|1458|1349|firefox|1
339|1576|1349|firefox|1
436|1578|1349|firefox|1
457|1580|1349|firefox|1
823|1679|1349|firefox|1
823|1680|1349|firefox|1
831|1777|1349|firefox|1
438|1780|1349|firefox|1
458|1812|1349|firefox|1
494|1776|1349|firefox|1
427|1808|1349|firefox|1
302|1131|1349|firefox|1
338|1777|1349|firefox|1
427|997|1349|firefox|1
348|1153|1349|firefox|1
347|1824|1349|firefox|1
