1045|69|1345|msie|0
611|756|1657|msie|0
916|429|1657|msie|0
916|429|1657|msie|0
804|120|1241|firefox|1
611|756|1657|msie|0
1150|124|1916|msie|0
264|672|995|msie|0
264|672|995|msie|0
676|119|997|safari|1
498|764|1420|msie|0
498|764|1420|msie|0
149|757|475|msie|0
300|366|1112|firefox|1
275|364|1112|firefox|1
196|364|1112|firefox|1
196|364|1112|firefox|1
196|364|1112|firefox|1
198|365|1112|firefox|1
303|370|1112|firefox|1
195|362|1112|firefox|1
199|428|1112|firefox|1
198|392|1112|firefox|1
198|392|1112|firefox|1
196|364|1112|firefox|1
267|370|1112|firefox|1
310|780|1112|firefox|1
507|824|1112|firefox|1
752|132|1112|firefox|1
