137|425|972|msie|0
182|617|972|msie|0
128|1125|972|msie|0
369|1154|972|msie|0
202|1266|972|msie|0
126|1119|972|msie|0
124|1522|972|msie|0
120|770|972|msie|0
131|837|972|msie|0
128|989|972|msie|0
193|976|972|msie|0
231|992|972|msie|0
121|1020|972|msie|0
189|1571|972|msie|0
